[
    {
        "url":"https://www-canberratimes-com-au.suzuka.uat2.newsnow.io/", 
        "publication": "CT",
        "category": "homepage"
    },
    {
        "url":"http://www-theherald-com-au.suzuka.uat2.newsnow.io/", 
        "publication": "NCH",
        "category": "homepage"
    }
]